<svg version="1.1" xmlns="http://www.w3.org/2000/svg" xmlns:xlink="http://www.w3.org/1999/xlink" width="14.84" height="12" viewBox="0 0 14.84 12">
  <defs>
    <style>
      .cls-1 {
        fill: #2c3e50;
        fill-opacity: 1;
        fill-rule: evenodd;
        filter: url(#filter);
      }
    </style>
    <filter id="filter" x="1098.16" y="10050" width="14.84" height="12" filterUnits="userSpaceOnUse">
      <feFlood result="flood" flood-color="#ffce45"/>
      <feComposite result="composite" operator="in" in2="SourceGraphic"/>
      <feBlend result="blend" in2="SourceGraphic"/>
    </filter>
  </defs>
  <path id="folder" class="cls-1" d="M1098.67,10050h4.58a1.224,1.224,0,0,1,.74.9,0.811,0.811,0,0,0,.52.6h6.15c0.88,0,.88,1-0.03,1h-8.9a0.992,0.992,0,0,0-.65.9l-1.2,8.6a1.007,1.007,0,0,1-.61-0.8c-0.07-.6-1.09-10.3-1.09-10.3S1098,10050,1098.67,10050Zm3.34,2.9h10.43a0.6,0.6,0,0,1,.56.6l-1.09,7.9a0.6,0.6,0,0,1-.56.6h-10.43a0.6,0.6,0,0,1-.56-0.6l1.09-7.9A0.6,0.6,0,0,1,1102.01,10052.9Z" transform="translate(-1098.16 -10050)"/>
</svg>
